LiPD Summaries • lipdR
…
#> 2 glacier ice records
#> 3 tree records
#> 1 lake sediment records
#> 13 LakeSediment records
#> 5 coral records
#> 2 Coral records
#> 2 Speleothem records
#> 4 Peat records
#> 
#> ### Geographic Bounds ###
#> All sites located between -75.0025N to 80.7N and -162.13E to 146.8749E 
#> 
#> ### Measurement tables and models ###
#> *Age values gathered from PaleoData Object 1, Measurement Table 1
#> # A tibble: 47 × 8
#>    Dataset                            `Archive Type` NumPalTabs NumChrTabs NumEns AgeMin        AgeMax           `Paleo Vars`                                                                                                                                                                                                                                                                                                                                                                                       
#>    <chr>                              <chr>               <dbl>      <dbl>  <dbl> <chr>         <chr>            <chr>                                                                                                                                                                                                                                                                                                                                                                                              
#>  1 165_1002C.Herbert.2000             MarineSediment          2          1      0 690 BP        164970 BP        depth, age, temperature, C37.concentration, temperature.1, label, Uk37, depth, age, planktic.d18O, label                                                                                                                                                                                                                                                                                           
#>  2 AbantGolu.Bottema.1993             Lake                    1          1      0 200 yr BP     13200 yr BP      ageMin, ageMax, age, ageMedian, depth, temperature, temperatureUncertainty, temperature.1, temperatureUncertainty.1, temperature.2, temperatureUncertainty.2, temperature.3, temperatureUncertainty.3, precipitation, precipitationUncertainty, precipitation.1, precipitationUncertainty.1, temperature.4, temperatureUncertainty.4, precipitation.2, precipitationUncertainty.2, temperature.5, …
#>  3 Agassiz.Lecavalier.2017            GlacierIce              2          0      0 16 Calibrated 11366 Calibrated age, temperature, uncertaintyHigh, uncertaintyLow, ReliabIeYN1, Commentregardingreliability1, melt, meltUncertaintyHigh, meltUncertaintyLow, age, d18O, temperature, uncertaintyHigh, uncertaintyHigh.1                                                                                                                                                                                            
#>  4 Ant-SiteDML05.Graf.2002            glacier ice             1          0      0 1996 AD       166 AD           d18O, year                                                                                                                                                                                                                                                                                                                                                                                         
#>  5 Arc-Agassiz.Vinther.2008           glacier ice             1          0      1 1972 AD       0 AD             d18O, year                                                                                                                                                                                                                                                                                                                                                                                         
#>  6 Asi-MONG033.Jacoby.2010            tree                    1          0      0 1997 AD       1550 AD          year, trsgi                                                                                                                                                                                                                                                                                                                                                                                        
#>  7 Aus-DuckholeLake.Saunders.2013     lake sediment           1          0      0 2001.32 AD    1140.35 AD       year, age, depth, waterContent, N, C, BSi, R650_700, R570_630, R660_670, RABD660_670, C_N                                                                                                                                                                                                                                                                                                          
#>  8 big_round.Thomas.2010              LakeSediment            1          1      0 -56 BP        10185.66 BP      depth, age, MS                                                                                                                                                                                                                                                                                                                                                                                     
#>  9 BlueMoundsCreek.Davis.1977Legacy   Lake                    1          1      0 -50 yr BP     12160 yr BP      ageMin, ageMax, age, ageMedian, depth, temperature, temperatureUncertainty, temperature.1, temperatureUncertainty.1, temperature.2, temperatureUncertainty.2, temperature.3, temperatureUncertainty.3, precipitation, precipitationUncertainty, precipitation.1, precipitationUncertainty.1, temperature.4, temperatureUncertainty.4, precipitation.2, precipitationUncertainty.2, temperature.5, …
#> 10 BO14HTI01                          coral                   3          0      0 2005.04 AD    1977.37 AD       d18O, year, SrCa, year, SrCaUncertainty, year                                                                                                                                                                                                                                                                                                                                                      
#> 11 CahabaPond.Delcourt.1983PaleoDIVER LakeSediment            1          0      0 -29 yr BP     13949 yr BP      age, ageOld, ageYoung, lakeLevelMax, lakeLevelMin, lakeLevel, lakeLevelRelative                                                                                                                                                                                                                                                                                                                    
#> 12 CO03COPM                           Coral                  12          0      2 1998.37 AD    928.13 AD        d18O, year, d18O, year, d18O, year, d18O, year, d18O, year, d18O, year, d18O, year, d18O, year, d18O, year, d18O, year, d18O, year, d18O, year, depth                                                                                                                                                                                                                                              
#> 13 CO04LIRA                           Coral                   3          1      2 1996.91 AD    1726.78 AD       d18O, year, d18O, year, d18O, year                                                                                                                                                                                                                                                                                                                                                                 
#> 14 CrowsnestLake.author.1111          Lake                    1          1      0 60 yr BP      12840 yr BP      ageMin, ageMax, age, ageMedian, depth, temperature, temperatureUncertainty, temperature.1, temperatureUncertainty.1, temperature.2, temperatureUncertainty.2, temperature.3, temperatureUncertainty.3, precipitation, precipitationUncertainty, precipitation.1, precipitationUncertainty.1, temperature.4, temperatureUncertainty.4, precipitation.2, precipitationUncertainty.2, temperature.5, …
#> 15 CuevaDiablo.Bernal.2011            Speleothem              1          1      0 672 AD        -8920 AD         d18O, year, age                                                                                                                                                                                                                                                                                                                                                                                    
#> 16 DE14DTO04                          coral                   1          0      0 2008.63 AD    1896.54 AD       SrCa, year                                                                                                                                                                                                                                                                                                                                                                                         
#> 17 EDML.Stenni.2010                   GlacierIce              1          0      0 1193 BP       12992 BP         bagDepth, age, bagd18O, bagdD, bagDexcess, temperature, tempSource, tempNoElevCorrection, tempNoSourceCorrection                                                                                                                                                                                                                                                                                   
#> 18 Emerald.Shuman.2014                LakeSediment            1          1      0 1700 AD       -9950 AD         lakeLevel, year, age, lakeLevelHi, lakeLevelLo                                                                                                                                                                                                                                                                                                                                                     
#> 19 GeoB5901_2.Kim.2004                MarineSediment          1          1      0 1130 BP       9920 BP          depth, ageDuplicate, ageOriginal, Uk37, temperature, ageMedianBacon, age                                                                                                                                                                                                                                                                                                                           
#> 20 Glattalp.Wirth.2013                LakeSediment            1          0      0 1960 AD       -8099 AD         floods, year, age                                                                                                                                                                                                                                                                                                                                                                                  
#> # … with 27 more rows
…
